%YAML 1.1
%TAG !u! tag:unity3d.com,2011:
--- !u!1045 &1
EditorBuildSettings:
  m_ObjectHideFlags: 0
  serializedVersion: 2
  m_Scenes:
  - enabled: 1
    path: Assets/CutieKeys/NormalKeyboard.unity
    guid: 57ccd74ecb71ae84d880138cfa3a2ae8
  m_configObjects: {}
